R for Conservation Criminology and Wildlife Security - Load the data
…
In the above two example, you can see that you can either focus on the file extension (for example when all the files and no other files are in single folder) or specify a word that’s common across the files (for example ‘route’). In the last example, I’ve also set the argument full.names = TRUE. This is necessary for when we want to apply the read_csv function. To do so, we can use the map function from the purrr package. With map we can basically apply the same function to every file we want.

library(purrr)

patrol_data_list <- map(
  route_files, ## here we specify our datafiles
  read_csv ## then we specify the function that we want to apply to every file. You can also use 'read_delim' or 'fread' here as well
)
patrol_data_list

[[1]]
# A tibble: 1,036 × 6
   device_id timestamp           accuracy heading_d latitude longitude
   <chr>     <dttm>                 <dbl>     <dbl>    <dbl>     <dbl>
 1 Tango     1999-12-31 20:12:04        4     356      -24.2      30.9
 2 Tango     1999-12-31 20:12:08        4     360      -24.2      30.9
 3 Tango     1999-12-31 20:12:11        5     354      -24.2      30.9
 4 Tango     1999-12-31 20:12:14        6     352.     -24.2      30.9
 5 Tango     1999-12-31 20:12:18        4       3.9    -24.2      30.9
 6 Tango     1999-12-31 20:12:21        4     358      -24.2      30.9
 7 Tango     1999-12-31 20:12:25        4     356      -24.2      30.9
 8 Tango     1999-12-31 20:12:29        4     356.     -24.2      30.9
 9 Tango     1999-12-31 20:12:32        4     359      -24.2      30.9
10 Tango     1999-12-31 20:12:36        4     357      -24.2      30.9
# … with 1,026 more rows

[[2]]
# A tibble: 998 × 6
   device_id timestamp           accuracy heading_d latitude longitude
   <chr>     <dttm>                 <dbl>     <dbl>    <dbl>     <dbl>
 1 Lema      2000-01-01 08:20:23        6        87    -24.2      30.9
 2 Lema      2000-01-01 08:20:27        6        85    -24.2      30.9
 3 Lema      2000-01-01 08:20:30        6        81    -24.2      30.9
 4 Lema      2000-01-01 08:20:33        6        82    -24.2      30.9
 5 Lema      2000-01-01 08:20:37        6        79    -24.2      30.9
 6 Lema      2000-01-01 08:20:41        6        86    -24.2      30.9
 7 Lema      2000-01-01 08:20:45        7        83    -24.2      30.9
 8 Lema      2000-01-01 08:20:48        6        85    -24.2      30.9
 9 Lema      2000-01-01 08:20:51        6        85    -24.2      30.9
10 Lema      2000-01-01 08:20:55        6        86    -24.2      30.9
# … with 988 more rows

The output of patrol_data_list is a list of data frames; one data.frame for every file. You can try replacing route_files with csv_files to see what happens when you don’t specify full.names = TRUE.

Reading the files in separately is handy and efficient, but is usually not easy to work with. Combining all the dataframes in a list is possible if each has exactly the same number of columns, exactly the same column names in the same position! To do so, we can use the function bind_rows from the dplyr package.

library(dplyr)

all_patrol_data <- bind_rows(patrol_data_list)

all_patrol_data

# A tibble: 2,034 × 6
   device_id timestamp           accuracy heading_d latitude longitude
   <chr>     <dttm>                 <dbl>     <dbl>    <dbl>     <dbl>
 1 Tango     1999-12-31 20:12:04        4     356      -24.2      30.9
 2 Tango     1999-12-31 20:12:08        4     360      -24.2      30.9
 3 Tango     1999-12-31 20:12:11        5     354      -24.2      30.9
 4 Tango     1999-12-31 20:12:14        6     352.     -24.2      30.9
 5 Tango     1999-12-31 20:12:18        4       3.9    -24.2      30.9
 6 Tango     1999-12-31 20:12:21        4     358      -24.2      30.9
 7 Tango     1999-12-31 20:12:25        4     356      -24.2      30.9
 8 Tango     1999-12-31 20:12:29        4     356.     -24.2      30.9
 9 Tango     1999-12-31 20:12:32        4     359      -24.2      30.9
10 Tango     1999-12-31 20:12:36        4     357      -24.2      30.9
# … with 2,024 more rows
…
